<svg xmlns="http://www.w3.org/2000/svg" width="804" height="527" viewBox="0 0 804 527">
  <g id="Group_103" data-name="Group 103" transform="translate(-7166 -1330)">
    <path id="Polygon_51" data-name="Polygon 51" d="M392,0l66.532,51.726,93.787-30,27.774,64.5,104.824-3.1-15.787,66.128,97.737,24.349L710.25,229.924,784,277.507l-87.659,36.77,37.011,62.59L629.809,387.732l-6.128,66.775-101.524-16.92L473.95,497,392,455.222,310.05,497l-48.207-59.413-101.524,16.92-6.128-66.775L50.648,376.868l37.011-62.59L0,277.507l73.75-47.584L17.132,173.606l97.737-24.349L99.083,83.129l104.824,3.1,27.774-64.5,93.787,30Z" transform="translate(7166 1360)"/>
    <path id="Polygon_52" data-name="Polygon 52" d="M392,0l66.532,51.726,93.787-30,27.774,64.5,104.824-3.1-15.787,66.128,97.737,24.349L710.25,229.924,784,277.507l-87.659,36.77,37.011,62.59L629.809,387.732l-6.128,66.775-101.524-16.92L473.95,497,392,455.222,310.05,497l-48.207-59.413-101.524,16.92-6.128-66.775L50.648,376.868l37.011-62.59L0,277.507l73.75-47.584L17.132,173.606l97.737-24.349L99.083,83.129l104.824,3.1,27.774-64.5,93.787,30Z" transform="translate(7186 1330)" fill="#fd0"/>
  </g>
</svg>
