[
  {
    "index": 0,
    "title": "Branding Headband #1",
    "dimensions": "Circumference 58.5cm, 23”//Width 5.7cm, 2.25”",
    "price": "100",
    "flatImagesCount": 3,
    "wornImagesCount": 8,
    "modelVideo": "video.mp4",
    "externalLink": "https://siyousen.myshopify.com/collections/headbands/products/branded-headband",
    "description": "This headband is constructed from various tags and brandings, sourced from the garments used to create Siyousen AW2020. It is made of an exterior layer of tags, and an interior layer of soft but elastic synthetic fabric. These layers form a space inside the headband which can be used to store cargo.\nBranding Headband #1 features embroidered tags. The garment was intended for personal use, and some signs of wear can be seen, although it is still in good condition. The tags produce a colorful array displaying the logos of common brands such as Timberland, Champion, Port and Company, Port Authority, Rugged Exposure, Goodfellow & Co., Nautica, Fourstar, and Banana Republic. There are also embroidered tags describing the fabric composition of garments, and their instructions for care."
  },
  {
    "index": 1,
    "title": "Lighter Pockets Cropped Branding Dyed Headband",
    "dimensions": "Circumference 58.5cm, 23”",
    "price": "45",
    "flatImagesCount": 2,
    "wornImagesCount": 2,
    "modelVideo": "video.mp4",
    "externalLink": "https://siyousen.myshopify.com/collections/headbands/products/cropped-branding-dyed-headband-3",
    "description" : "This headband is part of the Cropped Branding Dyed Headbands set. These headbands were deemed to be the most unattractive and crusty of the Americana Headbands set. They were dye-dipped multiple times to give them a worn and faded appearance. Then, multi-layered branding details were hand-sewn onto them, with Siyousen branding cropped so it becomes nearly unrecognizable. The punk-styled sewing of these brandings is reminiscent of Jun Takahashi’s SS03 “Scab” collection."
  },
  {
    "index": 2,
    "title": "1800-CLE-OPAT Headband",
    "dimensions": "Circumference 57cm, 22.5”",
    "price": "65",
    "flatImagesCount": 3,
    "wornImagesCount": 7,
    "modelVideo": "video.mp4",
    "externalLink": "https://siyousen.myshopify.com/collections/headbands/products/nubian-prince-headband",
    "description" : "The 1-800 Headband features repetition of elements throughout. The headband displays the screen printed number 1-800 five times, on five strips of cut and sewn fabric. Beside this number lies a graphic of a Egyptian woman wearing a headdress set against a fluorescent blue background. This graphic is repeated three times. The headband also features some patchwork of blue, mustard, lime green, and black cotton, and has an interior of breathable soft polyester. The headband contains a hidden opening inside which may be used as cargo space, allowing the full headband to be packed with goods."
  },
  {
    "index": 3,
    "title": "Dad’s Rugby Shirt Mottainai Headband",
    "dimensions": "Circumference 60cm//23.5”",
    "price": "35",
    "flatImagesCount": 1,
    "wornImagesCount": 1,
    "modelVideo": "video.mp4",
    "externalLink": "https://siyousen.myshopify.com/collections/headbands/products/mottainai-headband-1",
    "description" : "This headband is constructed according to the Japanese concept of mottainai. Mottainai roughly translates to “don’t be wasteful,” and describes the feeling of shame or regret one gets from wasting something which could have a use. The headbands are made of the leftover scraps of fabric produced in the creation of Siyousen AW20. The intent is to use every piece of waste produced. Notably, all the fabrics used for Siyousen AW20 are sourced from pre-worn pieces washed and recycled.\nMottainai headbands are made up of leftover fabric scraps and spare snippets of reflective 3M. These leftovers are attached to a black polyester sheet and cut, then sewn to a separate breathable black polyester inner lining. Each headband’s exterior consists of around 15 to 25 separate pieces of fabric."
  },
  {
    "index": 4,
    "title": "Fast Food Cropped Branding Dyed Headband",
    "dimensions": "Circumference 58.5cm, 23”",
    "price": "55",
    "flatImagesCount": 1,
    "wornImagesCount": 2,
    "modelVideo": "video.mp4",
    "externalLink": "https://siyousen.myshopify.com/collections/headbands/products/cropped-branding-dyed-headband-1",
    "description" : "This headband is part of the Cropped Branding Dyed Headbands set. These headbands were deemed to be the most unattractive and crusty of the Americana Headbands set. They were dye-dipped multiple times to give them a worn and faded appearance. Then, multi-layered branding details were hand-sewn onto them, with Siyousen branding cropped so it becomes nearly unrecognizable. The punk-styled sewing of these brandings is reminiscent of Jun Takahashi’s SS03 “Scab” collection."
  },
  {
    "index": 5,
    "title": "Bamboo Mottainai Headband",
    "dimensions": "Circumference 63.5cm//25”",
    "price": "35",
    "flatImagesCount": 1,
    "wornImagesCount": 3,
    "modelVideo": "video.mp4",
    "externalLink": "https://siyousen.myshopify.com/collections/headbands/products/mottainai-headband-4",
    "description" : "This headband is constructed according to the Japanese concept of mottainai. Mottainai roughly translates to “don’t be wasteful,” and describes the feeling of shame or regret one gets from wasting something which could have a use. The headbands are made of the leftover scraps of fabric produced in the creation of Siyousen AW20. The intent is to use every piece of waste produced. Notably, all the fabrics used for Siyousen AW20 are sourced from pre-worn pieces washed and recycled.\nMottainai headbands are made up of leftover fabric scraps and spare snippets of reflective 3M. These leftovers are attached to a black polyester sheet and cut, then sewn to a separate breathable black polyester inner lining. Each headband’s exterior consists of around 15 to 25 separate pieces of fabric."
  },
  {
    "index": 6,
    "title": "Cropped Cropped Branding Branding Headband",
    "dimensions": "Circumference 59.5cm, 23.5”",
    "price": "25",
    "flatImagesCount": 2,
    "wornImagesCount": 2,
    "modelVideo": "video.mp4",
    "externalLink": "https://siyousen.myshopify.com/collections/headbands/products/cropped-branding-dyed-headbands-5",
    "description" : "This headband is part of the Cropped Branding Dyed Headbands set. These headbands were deemed to be the most unattractive and crusty of the Americana Headbands set. They were dye-dipped multiple times to give them a worn and faded appearance. Then, multi-layered branding details were hand-sewn onto them, with Siyousen branding cropped so it becomes nearly unrecognizable. The punk-styled sewing of these brandings is reminiscent of Jun Takahashi’s SS03 “Scab” collection."
  },
  {
    "index": 7,
    "title": "Branding Headband #2",
    "dimensions": "Circumference 63.5cm, 25”//Width 5 cm, 2”",
    "price": "35",
    "flatImagesCount": 3,
    "wornImagesCount": 2,
    "modelVideo": "video.mp4",
    "externalLink": "https://siyousen.myshopify.com/collections/headbands/products/branded-headband-2",
    "description" : "This headband is constructed from various tags and brandings, sourced from the garments used to create Siyousen AW2020. It is made of an exterior layer of tags, and an interior layer of soft but elastic synthetic fabric. These layers form a space inside the headband which can be used to store cargo.\nBranding Headband #2 features printed tags. Unlike Branding Headband #1, this headband has a thick black border outlining these primarily white tags. This black border is accented by squares of pale yellow sourced from a dress shirt. The tags mostly describe the fabric compositions and sizes of clothing articles, but some display brand names such as Gildan, Hanes, and Dockers."
  },
  {
    "index": 8,
    "title": "I Love School Headband",
    "dimensions": "Circumference 54.5cm, 21.5”",
    "price": "35",
    "flatImagesCount": 2,
    "wornImagesCount": 4,
    "modelVideo": "video.mp4",
    "externalLink": "https://siyousen.myshopify.com/collections/headbands/products/love-kids-headbands",
    "description" : "The I Love School Headband displays a silk screened graphic of children roller skating, drawing, and sitting at a computer. The headband is constructed of cotton patchwork interspersed with nappy red and yellow fabrics. The inside of the headband is made of black, grey, and olive green cotton fabric."
  },
  {
    "index": 9,
    "title": "Suburban Americana Headband",
    "dimensions": "Circumference 58.5cm, 23”",
    "price": "20",
    "flatImagesCount": 1,
    "wornImagesCount": 0,
    "modelVideo": null,
    "externalLink": "https://siyousen.myshopify.com/collections/headbands/products/americana-headband-1",
    "description" : "The Americana headbands are made of various scrap fabrics, screen printed tees, knit patterns, and patterned fabrics. These fabrics were sewn to backings made primarily of cotton tees. Some of the headbands have polyester backing, or backing made of a synthetic/cotton blend. Some of the Americana headbands feature a hidden pocket which opens to the inside of the headband for storage.\nThe Americana headband set focuses on elevation of the Mundane. Mundane and often thoroughly worn or thrashed fabrics are combined, reconstructed and reimagined to create valuable headbands. Some fabrics were sourced from the bottoms of socks or highly stretched graphic tees, which had been heavily distressed through years of wear. Elements of Americana were incorporated in many of the headbands, with graphics depicting American flags, hot dogs, hamburgers, baseballs, nachos, army troops and local martial arts schools interspersed throughout the bands. Americanized depictions of other cultures can also be seen, with Orientalist depictions of Japanese waves, sushi, and sumo wrestlers intermixed with sombreros, tacos and Australian boomerangs."
  },
  {
    "index": 10,
    "title": "Kon Queso Americana Headband",
    "dimensions": "Circumference 61cm, 24”",
    "price": "20",
    "flatImagesCount": 1,
    "wornImagesCount": 2,
    "modelVideo": null,
    "externalLink": "https://siyousen.myshopify.com/collections/headbands/products/copy-of-americana-headband-2",
    "description" : "The Americana headbands are made of various scrap fabrics, screen printed tees, knit patterns, and patterned fabrics. These fabrics were sewn to backings made primarily of cotton tees. Some of the headbands have polyester backing, or backing made of a synthetic/cotton blend. Some of the Americana headbands feature a hidden pocket which opens to the inside of the headband for storage.\nThe Americana headband set focuses on elevation of the Mundane. Mundane and often thoroughly worn or thrashed fabrics are combined, reconstructed and reimagined to create valuable headbands. Some fabrics were sourced from the bottoms of socks or highly stretched graphic tees, which had been heavily distressed through years of wear. Elements of Americana were incorporated in many of the headbands, with graphics depicting American flags, hot dogs, hamburgers, baseballs, nachos, army troops and local martial arts schools interspersed throughout the bands. Americanized depictions of other cultures can also be seen, with Orientalist depictions of Japanese waves, sushi, and sumo wrestlers intermixed with sombreros, tacos and Australian boomerangs."
  },
  {
    "index": 11,
    "title": "Osama Americana Headband",
    "dimensions": "Circumference 59.5cm, 23.5”",
    "price": "15",
    "flatImagesCount": 1,
    "wornImagesCount": 2,
    "modelVideo": null,
    "externalLink": "https://siyousen.myshopify.com/collections/headbands/products/americana-headband-3",
    "description" : "The Americana headbands are made of various scrap fabrics, screen printed tees, knit patterns, and patterned fabrics. These fabrics were sewn to backings made primarily of cotton tees. Some of the headbands have polyester backing, or backing made of a synthetic/cotton blend. Some of the Americana headbands feature a hidden pocket which opens to the inside of the headband for storage.\nThe Americana headband set focuses on elevation of the Mundane. Mundane and often thoroughly worn or thrashed fabrics are combined, reconstructed and reimagined to create valuable headbands. Some fabrics were sourced from the bottoms of socks or highly stretched graphic tees, which had been heavily distressed through years of wear. Elements of Americana were incorporated in many of the headbands, with graphics depicting American flags, hot dogs, hamburgers, baseballs, nachos, army troops and local martial arts schools interspersed throughout the bands. Americanized depictions of other cultures can also be seen, with Orientalist depictions of Japanese waves, sushi, and sumo wrestlers intermixed with sombreros, tacos and Australian boomerangs."
  },
  {
    "index": 12,
    "title": "Thick Headband",
    "dimensions": "Circumference 63.5cm, 25”",
    "price": "35",
    "flatImagesCount": 1,
    "wornImagesCount": 0, 
    "modelVideo": null,
    "externalLink": "https://siyousen.myshopify.com/collections/headbands/products/americana-headband-4",
    "description" : "The Americana headbands are made of various scrap fabrics, screen printed tees, knit patterns, and patterned fabrics. These fabrics were sewn to backings made primarily of cotton tees. Some of the headbands have polyester backing, or backing made of a synthetic/cotton blend. Some of the Americana headbands feature a hidden pocket which opens to the inside of the headband for storage.\nThe Americana headband set focuses on elevation of the Mundane. Mundane and often thoroughly worn or thrashed fabrics are combined, reconstructed and reimagined to create valuable headbands. Some fabrics were sourced from the bottoms of socks or highly stretched graphic tees, which had been heavily distressed through years of wear. Elements of Americana were incorporated in many of the headbands, with graphics depicting American flags, hot dogs, hamburgers, baseballs, nachos, army troops and local martial arts schools interspersed throughout the bands. Americanized depictions of other cultures can also be seen, with Orientalist depictions of Japanese waves, sushi, and sumo wrestlers intermixed with sombreros, tacos and Australian boomerangs."
  },
  {
    "index": 13,
    "title": "Dundee Americana Headband",
    "dimensions": "Circumference 56cm, 22”",
    "price": "20",
    "flatImagesCount": 1,
    "wornImagesCount": 0,
    "modelVideo": null,
    "externalLink": "https://siyousen.myshopify.com/collections/headbands/products/americana-headband-5",
    "description" : "The Americana headbands are made of various scrap fabrics, screen printed tees, knit patterns, and patterned fabrics. These fabrics were sewn to backings made primarily of cotton tees. Some of the headbands have polyester backing, or backing made of a synthetic/cotton blend. Some of the Americana headbands feature a hidden pocket which opens to the inside of the headband for storage.\nThe Americana headband set focuses on elevation of the Mundane. Mundane and often thoroughly worn or thrashed fabrics are combined, reconstructed and reimagined to create valuable headbands. Some fabrics were sourced from the bottoms of socks or highly stretched graphic tees, which had been heavily distressed through years of wear. Elements of Americana were incorporated in many of the headbands, with graphics depicting American flags, hot dogs, hamburgers, baseballs, nachos, army troops and local martial arts schools interspersed throughout the bands. Americanized depictions of other cultures can also be seen, with Orientalist depictions of Japanese waves, sushi, and sumo wrestlers intermixed with sombreros, tacos and Australian boomerangs."
  },
  {
    "index": 14,
    "title": "Miami Americana Headband",
    "dimensions": "Circumference 58.5cm, 23”",
    "price": "40",
    "flatImagesCount": 1,
    "wornImagesCount": 3,
    "modelVideo": null,
    "externalLink": "https://siyousen.myshopify.com/collections/headbands/products/americana-headband-6",
    "description" : "The Americana headbands are made of various scrap fabrics, screen printed tees, knit patterns, and patterned fabrics. These fabrics were sewn to backings made primarily of cotton tees. Some of the headbands have polyester backing, or backing made of a synthetic/cotton blend. Some of the Americana headbands feature a hidden pocket which opens to the inside of the headband for storage.\nThe Americana headband set focuses on elevation of the Mundane. Mundane and often thoroughly worn or thrashed fabrics are combined, reconstructed and reimagined to create valuable headbands. Some fabrics were sourced from the bottoms of socks or highly stretched graphic tees, which had been heavily distressed through years of wear. Elements of Americana were incorporated in many of the headbands, with graphics depicting American flags, hot dogs, hamburgers, baseballs, nachos, army troops and local martial arts schools interspersed throughout the bands. Americanized depictions of other cultures can also be seen, with Orientalist depictions of Japanese waves, sushi, and sumo wrestlers intermixed with sombreros, tacos and Australian boomerangs."
  },
  {
    "index": 15,
    "title": "Shattered Americana Headband",
    "dimensions": "Circumference 56cm, 22”",
    "price": "35",
    "flatImagesCount": 1,
    "wornImagesCount": 0,
    "modelVideo": null,
    "externalLink": "https://siyousen.myshopify.com/collections/headbands/products/americana-headband-7",
    "description" : "The Americana headbands are made of various scrap fabrics, screen printed tees, knit patterns, and patterned fabrics. These fabrics were sewn to backings made primarily of cotton tees. Some of the headbands have polyester backing, or backing made of a synthetic/cotton blend. Some of the Americana headbands feature a hidden pocket which opens to the inside of the headband for storage.\nThe Americana headband set focuses on elevation of the Mundane. Mundane and often thoroughly worn or thrashed fabrics are combined, reconstructed and reimagined to create valuable headbands. Some fabrics were sourced from the bottoms of socks or highly stretched graphic tees, which had been heavily distressed through years of wear. Elements of Americana were incorporated in many of the headbands, with graphics depicting American flags, hot dogs, hamburgers, baseballs, nachos, army troops and local martial arts schools interspersed throughout the bands. Americanized depictions of other cultures can also be seen, with Orientalist depictions of Japanese waves, sushi, and sumo wrestlers intermixed with sombreros, tacos and Australian boomerangs."
  },
  {
    "index": 16,
    "title": "No Glue Americana Headband",
    "dimensions": "Circumference 59.5cm, 23.5”",
    "price": "20",
    "flatImagesCount": 1,
    "wornImagesCount": 0,
    "modelVideo": null,
    "externalLink": "https://siyousen.myshopify.com/collections/headbands/products/americana-headband-8",
    "description" : "The Americana headbands are made of various scrap fabrics, screen printed tees, knit patterns, and patterned fabrics. These fabrics were sewn to backings made primarily of cotton tees. Some of the headbands have polyester backing, or backing made of a synthetic/cotton blend. Some of the Americana headbands feature a hidden pocket which opens to the inside of the headband for storage.\nThe Americana headband set focuses on elevation of the Mundane. Mundane and often thoroughly worn or thrashed fabrics are combined, reconstructed and reimagined to create valuable headbands. Some fabrics were sourced from the bottoms of socks or highly stretched graphic tees, which had been heavily distressed through years of wear. Elements of Americana were incorporated in many of the headbands, with graphics depicting American flags, hot dogs, hamburgers, baseballs, nachos, army troops and local martial arts schools interspersed throughout the bands. Americanized depictions of other cultures can also be seen, with Orientalist depictions of Japanese waves, sushi, and sumo wrestlers intermixed with sombreros, tacos and Australian boomerangs."
  },
  {
    "index": 17,
    "title": "Pearl Harbor Americana Headband",
    "dimensions": "Circumference 58.5cm, 23”",
    "price": "25",
    "flatImagesCount": 1,
    "wornImagesCount": 0,
    "modelVideo": null,
    "externalLink": "https://siyousen.myshopify.com/collections/headbands/products/americana-headband-9",
    "description" : "The Americana headbands are made of various scrap fabrics, screen printed tees, knit patterns, and patterned fabrics. These fabrics were sewn to backings made primarily of cotton tees. Some of the headbands have polyester backing, or backing made of a synthetic/cotton blend. Some of the Americana headbands feature a hidden pocket which opens to the inside of the headband for storage.\nThe Americana headband set focuses on elevation of the Mundane. Mundane and often thoroughly worn or thrashed fabrics are combined, reconstructed and reimagined to create valuable headbands. Some fabrics were sourced from the bottoms of socks or highly stretched graphic tees, which had been heavily distressed through years of wear. Elements of Americana were incorporated in many of the headbands, with graphics depicting American flags, hot dogs, hamburgers, baseballs, nachos, army troops and local martial arts schools interspersed throughout the bands. Americanized depictions of other cultures can also be seen, with Orientalist depictions of Japanese waves, sushi, and sumo wrestlers intermixed with sombreros, tacos and Australian boomerangs."
  },
  {
    "index": 18,
    "title": "Neil Degrasse Americana Headband",
    "dimensions": "Circumference 56cm, 22”",
    "price": "20",
    "flatImagesCount": 1,
    "wornImagesCount": 0,
    "modelVideo": null,
    "externalLink": "https://siyousen.myshopify.com/collections/headbands/products/americana-headband-10",
    "description" : "The Americana headbands are made of various scrap fabrics, screen printed tees, knit patterns, and patterned fabrics. These fabrics were sewn to backings made primarily of cotton tees. Some of the headbands have polyester backing, or backing made of a synthetic/cotton blend. Some of the Americana headbands feature a hidden pocket which opens to the inside of the headband for storage.\nThe Americana headband set focuses on elevation of the Mundane. Mundane and often thoroughly worn or thrashed fabrics are combined, reconstructed and reimagined to create valuable headbands. Some fabrics were sourced from the bottoms of socks or highly stretched graphic tees, which had been heavily distressed through years of wear. Elements of Americana were incorporated in many of the headbands, with graphics depicting American flags, hot dogs, hamburgers, baseballs, nachos, army troops and local martial arts schools interspersed throughout the bands. Americanized depictions of other cultures can also be seen, with Orientalist depictions of Japanese waves, sushi, and sumo wrestlers intermixed with sombreros, tacos and Australian boomerangs."
  },
  {
    "index": 19,
    "title": "American Pastime Americana Headband",
    "dimensions": "Circumference 58.5cm, 23”",
    "price": "10",
    "flatImagesCount": 1,
    "wornImagesCount": 0,
    "modelVideo": null,
    "externalLink": "https://siyousen.myshopify.com/collections/headbands/products/americana-headband-11",
    "description" : "The Americana headbands are made of various scrap fabrics, screen printed tees, knit patterns, and patterned fabrics. These fabrics were sewn to backings made primarily of cotton tees. Some of the headbands have polyester backing, or backing made of a synthetic/cotton blend. Some of the Americana headbands feature a hidden pocket which opens to the inside of the headband for storage.\nThe Americana headband set focuses on elevation of the Mundane. Mundane and often thoroughly worn or thrashed fabrics are combined, reconstructed and reimagined to create valuable headbands. Some fabrics were sourced from the bottoms of socks or highly stretched graphic tees, which had been heavily distressed through years of wear. Elements of Americana were incorporated in many of the headbands, with graphics depicting American flags, hot dogs, hamburgers, baseballs, nachos, army troops and local martial arts schools interspersed throughout the bands. Americanized depictions of other cultures can also be seen, with Orientalist depictions of Japanese waves, sushi, and sumo wrestlers intermixed with sombreros, tacos and Australian boomerangs."
  },
  {
    "index": 20,
    "title": "Edward Said Americana Headband",
    "dimensions": "Circumference 58.5cm, 23”",
    "price": "40",
    "flatImagesCount": 1,
    "wornImagesCount": 1,
    "modelVideo": null,
    "externalLink": "https://siyousen.myshopify.com/collections/headbands/products/americana-headband-12",
    "description" : "The Americana headbands are made of various scrap fabrics, screen printed tees, knit patterns, and patterned fabrics. These fabrics were sewn to backings made primarily of cotton tees. Some of the headbands have polyester backing, or backing made of a synthetic/cotton blend. Some of the Americana headbands feature a hidden pocket which opens to the inside of the headband for storage.\nThe Americana headband set focuses on elevation of the Mundane. Mundane and often thoroughly worn or thrashed fabrics are combined, reconstructed and reimagined to create valuable headbands. Some fabrics were sourced from the bottoms of socks or highly stretched graphic tees, which had been heavily distressed through years of wear. Elements of Americana were incorporated in many of the headbands, with graphics depicting American flags, hot dogs, hamburgers, baseballs, nachos, army troops and local martial arts schools interspersed throughout the bands. Americanized depictions of other cultures can also be seen, with Orientalist depictions of Japanese waves, sushi, and sumo wrestlers intermixed with sombreros, tacos and Australian boomerangs."
  },
  {
    "index": 21,
    "title": "Boots on Soil Americana Headband",
    "dimensions": "Circumference 58.5cm, 23”",
    "price": "15",
    "flatImagesCount": 1,
    "wornImagesCount": 1,
    "modelVideo": null,
    "externalLink": "https://siyousen.myshopify.com/collections/headbands/products/americana-headband-13",
    "description" : "The Americana headbands are made of various scrap fabrics, screen printed tees, knit patterns, and patterned fabrics. These fabrics were sewn to backings made primarily of cotton tees. Some of the headbands have polyester backing, or backing made of a synthetic/cotton blend. Some of the Americana headbands feature a hidden pocket which opens to the inside of the headband for storage.\nThe Americana headband set focuses on elevation of the Mundane. Mundane and often thoroughly worn or thrashed fabrics are combined, reconstructed and reimagined to create valuable headbands. Some fabrics were sourced from the bottoms of socks or highly stretched graphic tees, which had been heavily distressed through years of wear. Elements of Americana were incorporated in many of the headbands, with graphics depicting American flags, hot dogs, hamburgers, baseballs, nachos, army troops and local martial arts schools interspersed throughout the bands. Americanized depictions of other cultures can also be seen, with Orientalist depictions of Japanese waves, sushi, and sumo wrestlers intermixed with sombreros, tacos and Australian boomerangs."
  },
  {
    "index": 22,
    "title": "Nevada Americana Headband",
    "dimensions": "Circumference 58.5cm, 23”",
    "price": "25",
    "flatImagesCount": 1,
    "wornImagesCount": 0,
    "modelVideo": null,
    "externalLink": "https://siyousen.myshopify.com/collections/headbands/products/americana-headband-14",
    "description" : "The Americana headbands are made of various scrap fabrics, screen printed tees, knit patterns, and patterned fabrics. These fabrics were sewn to backings made primarily of cotton tees. Some of the headbands have polyester backing, or backing made of a synthetic/cotton blend. Some of the Americana headbands feature a hidden pocket which opens to the inside of the headband for storage.\nThe Americana headband set focuses on elevation of the Mundane. Mundane and often thoroughly worn or thrashed fabrics are combined, reconstructed and reimagined to create valuable headbands. Some fabrics were sourced from the bottoms of socks or highly stretched graphic tees, which had been heavily distressed through years of wear. Elements of Americana were incorporated in many of the headbands, with graphics depicting American flags, hot dogs, hamburgers, baseballs, nachos, army troops and local martial arts schools interspersed throughout the bands. Americanized depictions of other cultures can also be seen, with Orientalist depictions of Japanese waves, sushi, and sumo wrestlers intermixed with sombreros, tacos and Australian boomerangs."
  },
  {
    "index": 23,
    "title": "Kwanzaa Americana Headband",
    "dimensions": "Circumference 56cm, 22”",
    "price": "20",
    "flatImagesCount": 1,
    "wornImagesCount": 0,
    "modelVideo": null,
    "externalLink": "https://siyousen.myshopify.com/collections/headbands/products/americana-headband-15",
    "description" : "The Americana headbands are made of various scrap fabrics, screen printed tees, knit patterns, and patterned fabrics. These fabrics were sewn to backings made primarily of cotton tees. Some of the headbands have polyester backing, or backing made of a synthetic/cotton blend. Some of the Americana headbands feature a hidden pocket which opens to the inside of the headband for storage.\nThe Americana headband set focuses on elevation of the Mundane. Mundane and often thoroughly worn or thrashed fabrics are combined, reconstructed and reimagined to create valuable headbands. Some fabrics were sourced from the bottoms of socks or highly stretched graphic tees, which had been heavily distressed through years of wear. Elements of Americana were incorporated in many of the headbands, with graphics depicting American flags, hot dogs, hamburgers, baseballs, nachos, army troops and local martial arts schools interspersed throughout the bands. Americanized depictions of other cultures can also be seen, with Orientalist depictions of Japanese waves, sushi, and sumo wrestlers intermixed with sombreros, tacos and Australian boomerangs."
  },
  {
    "index": 24,
    "title": "Thunder McKing Headband 1",
    "dimensions": "Circumference 60cm, 23.5”",
    "price": "17",
    "flatImagesCount": 1,
    "wornImagesCount": 0,
    "modelVideo": null,
    "externalLink": "https://siyousen.myshopify.com/collections/headbands/products/thunder-mcking-headbands",
    "description" : "The Thunder McKing headband set contains nine headbands. Eight of the nine headbands have a secret opening inside, into which cargo can be put. The full interior of the headband can be used to store items. The headbands are constructed from a nappy graphic synthetic fabric, which adorns the outside, and a smooth breathable synthetic interior. The exterior shows bright hues of red, yellow, blue, and black, while the interior is plain black."
  },
  {
    "index": 25,
    "title": "Tashildar LEAH Headband",
    "dimensions": "Circumference 58.5cm, 23”",
    "price": "40",
    "flatImagesCount": 1,
    "wornImagesCount": 2,
    "modelVideo": null,
    "externalLink": "https://siyousen.myshopify.com/collections/headbands/products/leah-headband-1",
    "description" : "The headbands in the LEAH set are produced of various materials, primarily screen-printed tees and cotton backings. The set focuses around sporting, with graphics from volleyball shirts, martial arts competitions, racecars, and wooden planes dominating the designs. The intent of the LEAH headbands is to source material from one context (a t-shirt, often an event tee) and change its interpretation by cropping it, rearranging it, and placing it in a new context (a headband). LEAH simply stands for Luscombe Et. Al Headbands, meaning the headbands which were grouped together with the Luscombe set."
  },
  {
    "index": 26,
    "title": "Samurai LEAH Headband",
    "dimensions": "Circumference 58.5cm, 23”",
    "price": "32",
    "flatImagesCount": 1,
    "wornImagesCount": 2,
    "modelVideo": null,
    "externalLink": "https://siyousen.myshopify.com/collections/headbands/products/leah-headband-2",
    "description" : "The headbands in the LEAH set are produced of various materials, primarily screen-printed tees and cotton backings. The set focuses around sporting, with graphics from volleyball shirts, martial arts competitions, racecars, and wooden planes dominating the designs. The intent of the LEAH headbands is to source material from one context (a t-shirt, often an event tee) and change its interpretation by cropping it, rearranging it, and placing it in a new context (a headband). LEAH simply stands for Luscombe Et. Al Headbands, meaning the headbands which were grouped together with the Luscombe set."
  },
  {
    "index": 27,
    "title": "Plane to See LEAH Headband",
    "dimensions": "Circumference 57cm, 22.5”",
    "price": "20",
    "flatImagesCount": 1,
    "wornImagesCount": 0,
    "modelVideo": null,
    "externalLink": "https://siyousen.myshopify.com/collections/headbands/products/leah-headband-3",
    "description" : "The headbands in the LEAH set are produced of various materials, primarily screen-printed tees and cotton backings. The set focuses around sporting, with graphics from volleyball shirts, martial arts competitions, racecars, and wooden planes dominating the designs. The intent of the LEAH headbands is to source material from one context (a t-shirt, often an event tee) and change its interpretation by cropping it, rearranging it, and placing it in a new context (a headband). LEAH simply stands for Luscombe Et. Al Headbands, meaning the headbands which were grouped together with the Luscombe set."
  },
  {
    "index": 28,
    "title": "Reconstructed Volleyball LEAH Headband",
    "dimensions": "Circumference 63.5cm, 25”",
    "price": "32",
    "flatImagesCount": 1,
    "wornImagesCount": 2,
    "modelVideo": null,
    "externalLink": "https://siyousen.myshopify.com/collections/headbands/products/leah-headband-4",
    "description" : "The headbands in the LEAH set are produced of various materials, primarily screen-printed tees and cotton backings. The set focuses around sporting, with graphics from volleyball shirts, martial arts competitions, racecars, and wooden planes dominating the designs. The intent of the LEAH headbands is to source material from one context (a t-shirt, often an event tee) and change its interpretation by cropping it, rearranging it, and placing it in a new context (a headband). LEAH simply stands for Luscombe Et. Al Headbands, meaning the headbands which were grouped together with the Luscombe set."
  },
  {
    "index": 29,
    "title": "Wavy Seppuku LEAH Headband",
    "dimensions": "Circumference 58.5cm, 23”",
    "price": "27",
    "flatImagesCount": 1,
    "wornImagesCount": 0,
    "modelVideo": null,
    "externalLink": "https://siyousen.myshopify.com/collections/headbands/products/leah-headband-5",
    "description" : "The headbands in the LEAH set are produced of various materials, primarily screen-printed tees and cotton backings. The set focuses around sporting, with graphics from volleyball shirts, martial arts competitions, racecars, and wooden planes dominating the designs. The intent of the LEAH headbands is to source material from one context (a t-shirt, often an event tee) and change its interpretation by cropping it, rearranging it, and placing it in a new context (a headband). LEAH simply stands for Luscombe Et. Al Headbands, meaning the headbands which were grouped together with the Luscombe set."
  },
  {
    "index": 30,
    "title": "No Wood LEAH Headband",
    "dimensions": "Circumference 51cm, 20”",
    "price": "20",
    "flatImagesCount": 1,
    "wornImagesCount": 0,
    "modelVideo": null,
    "externalLink": "https://siyousen.myshopify.com/collections/headbands/products/leah-headband-6",
    "description" : "The headbands in the LEAH set are produced of various materials, primarily screen-printed tees and cotton backings. The set focuses around sporting, with graphics from volleyball shirts, martial arts competitions, racecars, and wooden planes dominating the designs. The intent of the LEAH headbands is to source material from one context (a t-shirt, often an event tee) and change its interpretation by cropping it, rearranging it, and placing it in a new context (a headband). LEAH simply stands for Luscombe Et. Al Headbands, meaning the headbands which were grouped together with the Luscombe set."
  },
  {
    "index": 31,
    "title": "Tommy Johnson LEAH Headband",
    "dimensions": "Circumference 60cm, 23.5”",
    "price": "20",
    "flatImagesCount": 1,
    "wornImagesCount": 4,
    "modelVideo": null,
    "externalLink": "https://siyousen.myshopify.com/collections/headbands/products/leah-headband-7",
    "description" : "The headbands in the LEAH set are produced of various materials, primarily screen-printed tees and cotton backings. The set focuses around sporting, with graphics from volleyball shirts, martial arts competitions, racecars, and wooden planes dominating the designs. The intent of the LEAH headbands is to source material from one context (a t-shirt, often an event tee) and change its interpretation by cropping it, rearranging it, and placing it in a new context (a headband). LEAH simply stands for Luscombe Et. Al Headbands, meaning the headbands which were grouped together with the Luscombe set."
  },
  {
    "index": 32,
    "title": "Kratom LEAH Headband",
    "dimensions": "Circumference 54.5cm, 21.5”",
    "price": "25",
    "flatImagesCount": 1,
    "wornImagesCount": 0,
    "modelVideo": null,
    "externalLink": "https://siyousen.myshopify.com/collections/headbands/products/leah-headband-8",
    "description" : "The headbands in the LEAH set are produced of various materials, primarily screen-printed tees and cotton backings. The set focuses around sporting, with graphics from volleyball shirts, martial arts competitions, racecars, and wooden planes dominating the designs. The intent of the LEAH headbands is to source material from one context (a t-shirt, often an event tee) and change its interpretation by cropping it, rearranging it, and placing it in a new context (a headband). LEAH simply stands for Luscombe Et. Al Headbands, meaning the headbands which were grouped together with the Luscombe set."
  },
  {
    "index": 33,
    "title": "Chopped Nipple Cropped Branding Dyed Headband",
    "dimensions": "Circumference 56cm, 22”",
    "price": "50",
    "flatImagesCount": 2,
    "wornImagesCount": 2,
    "modelVideo": "video.mp4",
    "externalLink": "https://siyousen.myshopify.com/collections/headbands/products/cropped-branding-dyed-headband-2",
    "description" : "This headband is part of the Cropped Branding Dyed Headbands set. These headbands were deemed to be the most unattractive and crusty of the Americana Headbands set. They were dye-dipped multiple times to give them a worn and faded appearance. Then, multi-layered branding details were hand-sewn onto them, with Siyousen branding cropped so it becomes nearly unrecognizable. The punk-styled sewing of these brandings is reminiscent of Jun Takahashi’s SS03 “Scab” collection."
  },
  {
    "index": 34,
    "title": "Lunch Scraps Mottainai Headband",
    "dimensions": "Circumference 61cm//24”",
    "price": "20",
    "flatImagesCount": 1,
    "wornImagesCount": 0,
    "modelVideo": "video.mp4",
    "externalLink": "https://siyousen.myshopify.com/collections/headbands/products/mottainai-headband-2",
    "description" : "This headband is constructed according to the Japanese concept of mottainai. Mottainai roughly translates to “don’t be wasteful,” and describes the feeling of shame or regret one gets from wasting something which could have a use. The headbands are made of the leftover scraps of fabric produced in the creation of Siyousen AW20. The intent is to use every piece of waste produced. Notably, all the fabrics used for Siyousen AW20 are sourced from pre-worn pieces washed and recycled.\nMottainai headbands are made up of leftover fabric scraps and spare snippets of reflective 3M. These leftovers are attached to a black polyester sheet and cut, then sewn to a separate breathable black polyester inner lining. Each headband’s exterior consists of around 15 to 25 separate pieces of fabric."
  },
  {
    "index": 35,
    "title": "Poofy Mottainai Headband",
    "dimensions": "Circumference 63.5cm//25”",
    "price": "40",
    "flatImagesCount": 1,
    "wornImagesCount": 3,
    "modelVideo": "video.mp4",
    "externalLink": "https://siyousen.myshopify.com/collections/headbands/products/mottainai-headband-3",
    "description" : "This headband is constructed according to the Japanese concept of mottainai. Mottainai roughly translates to “don’t be wasteful,” and describes the feeling of shame or regret one gets from wasting something which could have a use. The headbands are made of the leftover scraps of fabric produced in the creation of Siyousen AW20. The intent is to use every piece of waste produced. Notably, all the fabrics used for Siyousen AW20 are sourced from pre-worn pieces washed and recycled.\nMottainai headban ds are made up of leftover fabric scraps and spare snippets of reflective 3M. These leftovers are attached to a black polyester sheet and cut, then sewn to a separate breathable black polyester inner lining. Each headband’s exterior consists of around 15 to 25 separate pieces of fabric."
  },
  {
    "index": 36,
    "title": "Tistic Cropped Branding Dyed Headband",
    "dimensions": "Circumference 61cm, 24”",
    "price": "30",
    "flatImagesCount": 2,
    "wornImagesCount": 2,
    "modelVideo": "video.mp4",
    "externalLink": "https://siyousen.myshopify.com/collections/headbands/products/cropped-branding-dyed-headbands-4",
    "description" : "This headband is part of the Cropped Branding Dyed Headbands set. These headbands were deemed to be the most unattractive and crusty of the Americana Headbands set. They were dye-dipped multiple times to give them a worn and faded appearance. Then, multi-layered branding details were hand-sewn onto them, with Siyousen branding cropped so it becomes nearly unrecognizable. The punk-styled sewing of these brandings is reminiscent of Jun Takahashi’s SS03 “Scab” collection."
  },
  {
    "index": 37,
    "title": "Young Slavic Mottainai Headband",
    "dimensions": "Circumference 69cm/27”",
    "price": "25",
    "flatImagesCount": 1,
    "wornImagesCount": 2,
    "modelVideo": "video.mp4",
    "externalLink": "https://siyousen.myshopify.com/collections/headbands/products/mottainai-headband-5",
    "description" : "This headband is constructed according to the Japanese concept of mottainai. Mottainai roughly translates to “don’t be wasteful,” and describes the feeling of shame or regret one gets from wasting something which could have a use. The headbands are made of the leftover scraps of fabric produced in the creation of Siyousen AW20. The intent is to use every piece of waste produced. Notably, all the fabrics used for Siyousen AW20 are sourced from pre-worn pieces washed and recycled.\nMottainai headbands are made up of leftover fabric scraps and spare snippets of reflective 3M. These leftovers are attached to a black polyester sheet and cut, then sewn to a separate breathable black polyester inner lining. Each headband’s exterior consists of around 15 to 25 separate pieces of fabric."
  },
  {
    "index": 38,
    "title": "Sardines Mottainai Headband",
    "dimensions": "Circumference 63.5cm//25”",
    "price": "30",
    "flatImagesCount": 1,
    "wornImagesCount": 0,
    "modelVideo": "video.mp4",
    "externalLink": "https://siyousen.myshopify.com/collections/headbands/products/mottainai-headband-6",
    "description" : "This headband is constructed according to the Japanese concept of mottainai. Mottainai roughly translates to “don’t be wasteful,” and describes the feeling of shame or regret one gets from wasting something which could have a use. The headbands are made of the leftover scraps of fabric produced in the creation of Siyousen AW20. The intent is to use every piece of waste produced. Notably, all the fabrics used for Siyousen AW20 are sourced from pre-worn pieces washed and recycled.\nMottainai headbands are made up of leftover fabric scraps and spare snippets of reflective 3M. These leftovers are attached to a black polyester sheet and cut, then sewn to a separate breathable black polyester inner lining. Each headband’s exterior consists of around 15 to 25 separate pieces of fabric."
  },
  {
    "index": 39,
    "title": "Paintbrush Mottainai Headband",
    "dimensions": "Circumference 63.5cm//25”",
    "price": "17",
    "flatImagesCount": 1,
    "wornImagesCount": 2,
    "modelVideo": "video.mp4",
    "externalLink": "https://siyousen.myshopify.com/collections/headbands/products/mottainai-headband-7",
    "description" : "This headband is constructed according to the Japanese concept of mottainai. Mottainai roughly translates to “don’t be wasteful,” and describes the feeling of shame or regret one gets from wasting something which could have a use. The headbands are made of the leftover scraps of fabric produced in the creation of Siyousen AW20. The intent is to use every piece of waste produced. Notably, all the fabrics used for Siyousen AW20 are sourced from pre-worn pieces washed and recycled.\nMottainai headbands are made up of leftover fabric scraps and spare snippets of reflective 3M. These leftovers are attached to a black polyester sheet and cut, then sewn to a separate breathable black polyester inner lining. Each headband’s exterior consists of around 15 to 25 separate pieces of fabric."
  },
  {
    "index": 40,
    "title": "Thunder McKing Headband 2",
    "dimensions": "Circumference 57cm, 22.5”",
    "price": "17",
    "flatImagesCount": 1,
    "wornImagesCount": 0,
    "modelVideo": null,
    "externalLink": "https://siyousen.myshopify.com/collections/headbands/products/thunder-mcking-headbands-2",
    "description" : "The Thunder McKing headband set contains nine headbands. Eight of the nine headbands have a secret opening inside, into which cargo can be put. The full interior of the headband can be used to store items. The headbands are constructed from a nappy graphic synthetic fabric, which adorns the outside, and a smooth breathable synthetic interior. The exterior shows bright hues of red, yellow, blue, and black, while the interior is plain black."
  },
  {
    "index": 41,
    "title": "Thunder McKing Headband 3",
    "dimensions": "Circumference 58.5cm, 23”",
    "price": "17",
    "flatImagesCount": 1,
    "wornImagesCount": 1,
    "modelVideo": null,
    "externalLink": "https://siyousen.myshopify.com/collections/headbands/products/thunder-mcking-headbands-3",
    "description" : "The Thunder McKing headband set contains nine headbands. Eight of the nine headbands have a secret opening inside, into which cargo can be put. The full interior of the headband can be used to store items. The headbands are constructed from a nappy graphic synthetic fabric, which adorns the outside, and a smooth breathable synthetic interior. The exterior shows bright hues of red, yellow, blue, and black, while the interior is plain black."
  },
  {
    "index": 42,
    "title": "Thunder McKing Headband 4",
    "dimensions": "Circumference 56cm, 22”",
    "price": "17",
    "flatImagesCount": 1,
    "wornImagesCount": 0,
    "modelVideo": null,
    "externalLink": "https://siyousen.myshopify.com/collections/headbands/products/thunder-mcking-headbands-4",
    "description" : "The Thunder McKing headband set contains nine headbands. Eight of the nine headbands have a secret opening inside, into which cargo can be put. The full interior of the headband can be used to store items. The headbands are constructed from a nappy graphic synthetic fabric, which adorns the outside, and a smooth breathable synthetic interior. The exterior shows bright hues of red, yellow, blue, and black, while the interior is plain black."
  },
  {
    "index": 43,
    "title": "Thunder McKing Headband 5",
    "dimensions": "Circumference 58.5cm, 23’",
    "price": "17",
    "flatImagesCount": 1,
    "wornImagesCount": 0,
    "modelVideo": null,
    "externalLink": "https://siyousen.myshopify.com/collections/headbands/products/thunder-mcking-headbands-5",
    "description" : "The Thunder McKing headband set contains nine headbands. Eight of the nine headbands have a secret opening inside, into which cargo can be put. The full interior of the headband can be used to store items. The headbands are constructed from a nappy graphic synthetic fabric, which adorns the outside, and a smooth breathable synthetic interior. The exterior shows bright hues of red, yellow, blue, and black, while the interior is plain black."
  },
  {
    "index": 44,
    "title": "Thunder McKing Headband 6",
    "dimensions": "Circumference 53.5cm, 21”",
    "price": "17",
    "flatImagesCount": 1,
    "wornImagesCount": 0,
    "modelVideo": null,
    "externalLink": "https://siyousen.myshopify.com/collections/headbands/products/thunder-mcking-headbands-6",
    "description" : "The Thunder McKing headband set contains nine headbands. Eight of the nine headbands have a secret opening inside, into which cargo can be put. The full interior of the headband can be used to store items. The headbands are constructed from a nappy graphic synthetic fabric, which adorns the outside, and a smooth breathable synthetic interior. The exterior shows bright hues of red, yellow, blue, and black, while the interior is plain black."
  },
  {
    "index": 45,
    "title": "Thunder McKing Headband 7",
    "dimensions": "Circumference 58.5cm, 23”",
    "price": "17",
    "flatImagesCount": 1,
    "wornImagesCount": 3,
    "modelVideo": null,
    "externalLink": "https://siyousen.myshopify.com/collections/headbands/products/thunder-mcking-headbands-7",
    "description" : "The Thunder McKing headband set contains nine headbands. Eight of the nine headbands have a secret opening inside, into which cargo can be put. The full interior of the headband can be used to store items. The headbands are constructed from a nappy graphic synthetic fabric, which adorns the outside, and a smooth breathable synthetic interior. The exterior shows bright hues of red, yellow, blue, and black, while the interior is plain black."
  },
  {
    "index": 46,
    "title": "Thunder McKing Headband 8",
    "dimensions": "Circumference 56cm, 22”",
    "price": "17",
    "flatImagesCount": 1,
    "wornImagesCount": 0,
    "modelVideo": null,
    "externalLink": "https://siyousen.myshopify.com/collections/headbands/products/thunder-mcking-headbands-8",
    "description" : "The Thunder McKing headband set contains nine headbands. Eight of the nine headbands have a secret opening inside, into which cargo can be put. The full interior of the headband can be used to store items. The headbands are constructed from a nappy graphic synthetic fabric, which adorns the outside, and a smooth breathable synthetic interior. The exterior shows bright hues of red, yellow, blue, and black, while the interior is plain black."
  },
  {
    "index": 47,
    "title": "Thunder McKing Headband 9",
    "dimensions": "Circumference 58.5cm, 23”",
    "price": "25",
    "flatImagesCount": 1,
    "wornImagesCount": 1,
    "modelVideo": null,
    "externalLink": "https://siyousen.myshopify.com/collections/headbands/products/thunder-mcking-headbands-9",
    "description" : "The Thunder McKing headband set contains nine headbands. Eight of the nine headbands have a secret opening inside, into which cargo can be put. The full interior of the headband can be used to store items. The headbands are constructed from a nappy graphic synthetic fabric, which adorns the outside, and a smooth breathable synthetic interior. The exterior shows bright hues of red, yellow, blue, and black, while the interior is plain black."
  }
]